{
  "lib/transmission/system": [
    "load_value_type_bet_item.rb",
    "load_dices.rb",
    "load_dice_score_card.rb",
    "load_score_board.rb",
    "bet.rb",
    "roll_dice.rb",
    "calculate_dice_win_type.rb",
    "calculate_dice_payout.rb",
    "determine_win_level_by_odds.rb",
    "accumulate_payout.rb",
    "record_dice_score.rb"
  ],
  "game_definition/H-FC": [
    "game_config.yaml",
    "system_config.yaml",
    "math_model.yaml"
  ]
}