{
  "lib/transmission/system": [
    "load_player_hand_with_best_hand.rb",
    "bet.rb",
    "dealt_player_card_per_suit.rb",
    "calculate_best_hand.rb",
    "calculate_ante_payout.rb"
  ],
  "game_definition/H-LLF": [
    "game_config.yaml",
    "system_config.yaml",
    "math_model.yaml"
  ]
}